Estado inicial:
[0, 2, 3, 1, 5, 6, 4, 7, 8]
=========================================
Busca A Estrela (inversao):
Estados Visitados:  5
Altura:  4
Estados na Pilha:  6
Tempo consumido:  0.000298976898193
=========================================
Busca A Estrela (fora de posicao):
Estados Visitados:  5
Altura:  4
Estados na Pilha:  6
Tempo consumido:  9.20295715332e-05
=========================================
Busca A Estrela (distancia):
Estados Visitados:  5
Altura:  4
Estados na Pilha:  6
Tempo consumido:  0.000246047973633
=========================================
Busca em Largura:
Estados Visitados:  70
Altura:  4
Estados na Fila:  121
Tempo consumido:  0.000745058059692
=========================================
Busca em Profundidade Iterativa:
Estados Visitados:  47
Altura:  4
Estados na Pilha:  5
Tempo consumido:  0.000176906585693
=========================================
Busca em Profundidade:
Estados Visitados:  336507
Altura:  336506
Estados na Pilha:  616915
Tempo consumido:  5.09614801407
=========================================
Best First (inversao):
Estados Visitados:  5
Altura:  4
Estados na Pilha:  6
Tempo consumido:  0.000302076339722
=========================================
Best First (fora de posicao):
Estados Visitados:  5
Altura:  4
Estados na Pilha:  6
Tempo consumido:  6.19888305664e-05
=========================================
Best First (distancia):
Estados Visitados:  5
Altura:  4
Estados na Pilha:  6
Tempo consumido:  0.000255107879639
